\relax 
\providecommand\hyper@newdestlabel[2]{}
\@writefile{toc}{\beamer@subsectionintoc {2}{1}{K Nearest Neighbors (K-NN)}{28}{0}{2}}
\@writefile{nav}{\headcommand {\beamer@subsectionentry {0}{2}{1}{28}{K Nearest Neighbors (K-NN)}}\headcommand {\beamer@subsectionpages {27}{27}}}
\@writefile{nav}{\headcommand {\slideentry {2}{1}{1}{28/28}{K Nearest Neighbors (K-NN)}{0}}}
\@writefile{nav}{\headcommand {\beamer@framepages {28}{28}}}
\@writefile{nav}{\headcommand {\slideentry {2}{1}{2}{29/29}{K Nearest Neighbors (K-NN)}{0}}}
\@writefile{nav}{\headcommand {\beamer@framepages {29}{29}}}
\@writefile{nav}{\headcommand {\slideentry {2}{1}{3}{30/30}{K Nearest Neighbors (K-NN)}{0}}}
\@writefile{nav}{\headcommand {\beamer@framepages {30}{30}}}
\@writefile{nav}{\headcommand {\slideentry {2}{1}{4}{31/31}{K Nearest Neighbors (K-NN)}{0}}}
\@writefile{nav}{\headcommand {\beamer@framepages {31}{31}}}
\@writefile{toc}{\beamer@subsectionintoc {2}{2}{Support Vector Machine (SVM)}{32}{0}{2}}
\@writefile{nav}{\headcommand {\beamer@subsectionentry {0}{2}{2}{32}{Support Vector Machine (SVM)}}\headcommand {\beamer@subsectionpages {28}{31}}}
\@writefile{nav}{\headcommand {\slideentry {2}{2}{1}{32/32}{Support Vector Machine (SVM)}{0}}}
\@writefile{nav}{\headcommand {\beamer@framepages {32}{32}}}
\@writefile{nav}{\headcommand {\slideentry {2}{2}{2}{33/33}{Support Vector Machine (SVM)}{0}}}
\@writefile{nav}{\headcommand {\beamer@framepages {33}{33}}}
\@writefile{nav}{\headcommand {\slideentry {2}{2}{3}{34/34}{Support Vector Machine (SVM)}{0}}}
\@writefile{nav}{\headcommand {\beamer@framepages {34}{34}}}
\@writefile{nav}{\headcommand {\slideentry {2}{2}{4}{35/35}{Support Vector Machine (SVM)}{0}}}
\@writefile{nav}{\headcommand {\beamer@framepages {35}{35}}}
\@writefile{nav}{\headcommand {\slideentry {2}{2}{5}{36/36}{Support Vector Machine (SVM)}{0}}}
\@writefile{nav}{\headcommand {\beamer@framepages {36}{36}}}
\@writefile{nav}{\headcommand {\slideentry {2}{2}{6}{37/37}{Support Vector Machine (SVM)}{0}}}
\@writefile{nav}{\headcommand {\beamer@framepages {37}{37}}}
\@writefile{nav}{\headcommand {\slideentry {2}{2}{7}{38/38}{Support Vector Machine (SVM)}{0}}}
\@writefile{nav}{\headcommand {\beamer@framepages {38}{38}}}
\@writefile{nav}{\headcommand {\slideentry {2}{2}{8}{39/39}{Support Vector Machine (SVM)}{0}}}
\@writefile{nav}{\headcommand {\beamer@framepages {39}{39}}}
\@writefile{nav}{\headcommand {\slideentry {2}{2}{9}{40/40}{Support Vector Machine (SVM)}{0}}}
\@writefile{nav}{\headcommand {\beamer@framepages {40}{40}}}
\@writefile{nav}{\headcommand {\slideentry {2}{2}{10}{41/41}{Support Vector Machine (SVM)}{0}}}
\@writefile{nav}{\headcommand {\beamer@framepages {41}{41}}}
\@writefile{nav}{\headcommand {\slideentry {2}{2}{11}{42/42}{Support Vector Machine (SVM)}{0}}}
\@writefile{nav}{\headcommand {\beamer@framepages {42}{42}}}
\@writefile{nav}{\headcommand {\slideentry {2}{2}{12}{43/43}{Support Vector Machine (SVM)}{0}}}
\@writefile{nav}{\headcommand {\beamer@framepages {43}{43}}}
\@writefile{nav}{\headcommand {\slideentry {2}{2}{13}{44/44}{Support Vector Machine (SVM)}{0}}}
\@writefile{nav}{\headcommand {\beamer@framepages {44}{44}}}
\@writefile{nav}{\headcommand {\slideentry {2}{2}{14}{45/45}{Support Vector Machine (SVM)}{0}}}
\@writefile{nav}{\headcommand {\beamer@framepages {45}{45}}}
\@writefile{nav}{\headcommand {\slideentry {2}{2}{15}{46/46}{Support Vector Machine (SVM)}{0}}}
\@writefile{nav}{\headcommand {\beamer@framepages {46}{46}}}
\@writefile{nav}{\headcommand {\slideentry {2}{2}{16}{47/47}{Support Vector Machine (SVM)}{0}}}
\@writefile{nav}{\headcommand {\beamer@framepages {47}{47}}}
\newlabel{sec:orgheadline17<1>}{{38}{48}{Support Vector Machine (SVM)}{Doc-Start}{}}
\@writefile{snm}{\beamer@slide {sec:orgheadline17<1>}{48}}
\newlabel{sec:orgheadline17}{{38}{48}{Support Vector Machine (SVM)}{Doc-Start}{}}
\@writefile{snm}{\beamer@slide {sec:orgheadline17}{48}}
\@writefile{nav}{\headcommand {\slideentry {2}{2}{17}{48/48}{Support Vector Machine (SVM)}{0}}}
\@writefile{nav}{\headcommand {\beamer@framepages {48}{48}}}
\@writefile{nav}{\headcommand {\slideentry {2}{2}{18}{49/49}{Support Vector Machine (SVM)}{0}}}
\@writefile{nav}{\headcommand {\beamer@framepages {49}{49}}}
\@writefile{nav}{\headcommand {\slideentry {2}{2}{19}{50/50}{Support Vector Machine (SVM)}{0}}}
\@writefile{nav}{\headcommand {\beamer@framepages {50}{50}}}
\@writefile{nav}{\headcommand {\slideentry {2}{2}{20}{51/51}{Support Vector Machine (SVM)}{0}}}
\@writefile{nav}{\headcommand {\beamer@framepages {51}{51}}}
\@writefile{nav}{\headcommand {\slideentry {2}{2}{21}{52/52}{Support Vector Machine (SVM)}{0}}}
\@writefile{nav}{\headcommand {\beamer@framepages {52}{52}}}
\@writefile{nav}{\headcommand {\slideentry {2}{2}{22}{53/53}{Support Vector Machine (SVM)}{0}}}
\@writefile{nav}{\headcommand {\beamer@framepages {53}{53}}}
\@writefile{nav}{\headcommand {\slideentry {2}{2}{23}{54/54}{Support Vector Machine (SVM)}{0}}}
\@writefile{nav}{\headcommand {\beamer@framepages {54}{54}}}
\@writefile{toc}{\beamer@subsectionintoc {2}{3}{Random Forests}{55}{0}{2}}
\@writefile{nav}{\headcommand {\beamer@subsectionentry {0}{2}{3}{55}{Random Forests}}\headcommand {\beamer@subsectionpages {32}{54}}}
\@writefile{nav}{\headcommand {\slideentry {2}{3}{1}{55/55}{Random Forests}{0}}}
\@writefile{nav}{\headcommand {\beamer@framepages {55}{55}}}
\@writefile{nav}{\headcommand {\slideentry {2}{3}{2}{56/56}{Random Forests}{0}}}
\@writefile{nav}{\headcommand {\beamer@framepages {56}{56}}}
\@writefile{nav}{\headcommand {\slideentry {2}{3}{3}{57/60}{Random Forests}{0}}}
\@writefile{nav}{\headcommand {\beamer@framepages {57}{60}}}
\@writefile{nav}{\headcommand {\slideentry {2}{3}{4}{61/61}{Random Forests}{0}}}
\@writefile{nav}{\headcommand {\beamer@framepages {61}{61}}}
\@writefile{nav}{\headcommand {\slideentry {2}{3}{5}{62/62}{Random Forests}{0}}}
\@writefile{nav}{\headcommand {\beamer@framepages {62}{62}}}
\@writefile{nav}{\headcommand {\slideentry {2}{3}{6}{63/63}{Random Forests}{0}}}
\@writefile{nav}{\headcommand {\beamer@framepages {63}{63}}}
\@writefile{nav}{\headcommand {\slideentry {2}{3}{7}{64/64}{Random Forests}{0}}}
\@writefile{nav}{\headcommand {\beamer@framepages {64}{64}}}
\@setckpt{modelFree}{
\setcounter{page}{65}
\setcounter{equation}{0}
\setcounter{enumi}{5}
\setcounter{enumii}{0}
\setcounter{enumiii}{0}
\setcounter{enumiv}{0}
\setcounter{footnote}{0}
\setcounter{mpfootnote}{0}
\setcounter{beamerpauses}{1}
\setcounter{Hy@AnnotLevel}{0}
\setcounter{bookmark@seq@number}{7}
\setcounter{lecture}{0}
\setcounter{part}{0}
\setcounter{section}{2}
\setcounter{subsection}{3}
\setcounter{subsubsection}{0}
\setcounter{subsectionslide}{7}
\setcounter{framenumber}{50}
\setcounter{figure}{0}
\setcounter{table}{0}
\setcounter{parentequation}{0}
\setcounter{theorem}{2}
\setcounter{LT@tables}{0}
\setcounter{LT@chunks}{0}
\setcounter{r@tfl@t}{0}
\setcounter{eu@}{0}
\setcounter{eu@i}{0}
\setcounter{mkern}{0}
\setcounter{fontsnotfound}{0}
\setcounter{section@level}{0}
}
